module github.com/wzv5/pping

go 1.20

require (
	github.com/miekg/dns v1.1.55
	github.com/quic-go/quic-go v0.38.0
	github.com/spf13/cobra v1.7.0
	golang.org/x/net v0.14.0
)

require (
	github.com/go-task/slim-sprig v0.0.0-20230315185526-52ccab3ef572 // indirect
	github.com/golang/mock v1.6.0 // indirect
	github.com/google/pprof v0.0.0-20230821062121-407c9e7a662f // indirect
	github.com/inconshreveable/mousetrap v1.1.0 // indirect
	github.com/onsi/ginkgo/v2 v2.12.0 // indirect
	github.com/quic-go/qpack v0.4.0 // indirect
	github.com/quic-go/qtls-go1-20 v0.3.3 // indirect
	github.com/spf13/pflag v1.0.5 // indirect
	golang.org/x/crypto v0.12.0 // indirect
	golang.org/x/exp v0.0.0-20230817173708-d852ddb80c63 // indirect
	golang.org/x/mod v0.12.0 // indirect
	golang.org/x/sys v0.11.0 // indirect
	golang.org/x/text v0.12.0 // indirect
	golang.org/x/tools v0.12.1-0.20230815132531-74c255bcf846 // indirect
)
